…
## Violin plot of Return distribution by fund

The violin plot below clearly shops that the AI fund behaves similarly
to the Benchmark fund and quite opposite to the average of the ASISA
funds. Taking the average of the ASISA funds will condense the density
as we can see and thus is a biased view. The Benchmark fund seems to
reach further, both positively and negatively in returns while the
distribution of the returns for the AI fund are less dense while
simultaneously being less sparse. BAsically less crowded.

``` r
funds
```

    ## # A tibble: 714 × 3
    ## # Groups:   date [238]
    ##    date       Tickers    Returns
    ##    <date>     <chr>        <dbl>
    ##  1 2003-01-31 ASISA     0.00631 
    ##  2 2003-01-31 Our_Fund -0.0275  
    ##  3 2003-01-31 J433     -0.0376  
    ##  4 2003-02-28 ASISA    -0.000563
    ##  5 2003-02-28 Our_Fund -0.0427  
    ##  6 2003-02-28 J433     -0.0459  
    ##  7 2003-03-31 ASISA    -0.00786 
    ##  8 2003-03-31 Our_Fund -0.0945  
    ##  9 2003-03-31 J433     -0.0832  
    ## 10 2003-04-30 ASISA     0.00323 
    ## # … with 704 more rows
…
# Rename tibbles
names(sector_return) <- sectors
sector_return
```

    ## $Resources
    ## # A tibble: 6,916 × 5
    ## # Groups:   Portfolio [2]
    ##    date       Portfolio   Returns cumreturn_Rand Sector   
    ##    <date>     <chr>         <dbl>          <dbl> <chr>    
    ##  1 2008-01-02 J200       0.0148            1     Resources
    ##  2 2008-01-02 J400       0.0164            1     Resources
    ##  3 2008-01-03 J200       0.00699           1.01  Resources
    ##  4 2008-01-03 J400       0.0131            1.01  Resources
    ##  5 2008-01-04 J200      -0.000828          1.01  Resources
    ##  6 2008-01-04 J400      -0.00315           1.01  Resources
    ##  7 2008-01-07 J200      -0.0184            0.988 Resources
    ##  8 2008-01-07 J400      -0.0153            0.994 Resources
    ##  9 2008-01-08 J200       0.0151            1.00  Resources
    ## 10 2008-01-08 J400       0.0213            1.02  Resources
    ## # … with 6,906 more rows
    ## 
    ## $Industrials
    ## # A tibble: 6,916 × 5
    ## # Groups:   Portfolio [2]
    ##    date       Portfolio  Returns cumreturn_Rand Sector     
    ##    <date>     <chr>        <dbl>          <dbl> <chr>      
    ##  1 2008-01-02 J200       0.0123           1     Industrials
    ##  2 2008-01-02 J400       0.0130           1     Industrials
    ##  3 2008-01-03 J200      -0.0179           0.982 Industrials
    ##  4 2008-01-03 J400      -0.0194           0.981 Industrials
    ##  5 2008-01-04 J200      -0.00681          0.975 Industrials
    ##  6 2008-01-04 J400      -0.00380          0.977 Industrials
    ##  7 2008-01-07 J200      -0.00122          0.974 Industrials
    ##  8 2008-01-07 J400      -0.00368          0.973 Industrials
    ##  9 2008-01-08 J200       0.00680          0.981 Industrials
    ## 10 2008-01-08 J400       0.00481          0.978 Industrials
    ## # … with 6,906 more rows
    ## 
    ## $Financials
    ## # A tibble: 6,916 × 5
    ## # Groups:   Portfolio [2]
    ##    date       Portfolio  Returns cumreturn_Rand Sector    
    ##    <date>     <chr>        <dbl>          <dbl> <chr>     
    ##  1 2008-01-02 J200       0.00808          1     Financials
    ##  2 2008-01-02 J400       0.0101           1     Financials
    ##  3 2008-01-03 J200      -0.0189           0.981 Financials
    ##  4 2008-01-03 J400      -0.0193           0.981 Financials
    ##  5 2008-01-04 J200      -0.0158           0.966 Financials
    ##  6 2008-01-04 J400      -0.0132           0.968 Financials
    ##  7 2008-01-07 J200      -0.00957          0.956 Financials
    ##  8 2008-01-07 J400      -0.00907          0.959 Financials
    ##  9 2008-01-08 J200       0.00818          0.964 Financials
    ## 10 2008-01-08 J400       0.0102           0.969 Financials
    ## # … with 6,906 more rows
…
# Calculate optimal rolling weights for each type of portfolio optimization
Result <- quarterly_rebalance %>% map_df(~Roll_optimizer(return_mat, EOM_datevec = ., Amat = Amat, bvec = bvec, LookBackSel = 36))

Result
```

    ## # A tibble: 1,040 × 7
    ##    Tickers             mv  minvol maxdecor sharpe date       Look_Back_Period
    ##    <chr>            <dbl>   <dbl>    <dbl>  <dbl> <date>                <dbl>
    ##  1 ADXY Index     0.00100 0.4      0.158   0.0769 2002-03-29               36
    ##  2 BCOMTR Index   0.148   0.0364   0.128   0.0769 2002-03-29               36
    ##  3 DXY Index      0.00100 0.271    0.279   0.0769 2002-03-29               36
    ##  4 LEATTREU Index 0.00100 0.00100  0.0414  0.0769 2002-03-29               36
    ##  5 LGAGTRUH Index 0.00100 0.126    0.00100 0.0769 2002-03-29               36
    ##  6 LGCPTRUH Index 0.00100 0.00100  0.00100 0.0769 2002-03-29               36
    ##  7 LP05TREH Index 0.00100 0.00100  0.00100 0.0769 2002-03-29               36
    ##  8 LUACTRUU Index 0.245   0.00100  0.00100 0.0769 2002-03-29               36
    ##  9 LUAGTRUU Index 0.00100 0.120    0.180   0.0769 2002-03-29               36
    ## 10 MSCI_ACWI      0.400   0.0231   0.00100 0.0769 2002-03-29               36
    ## # … with 1,030 more rows
…
